{
  "ACT-1": {
    "Activity": "go to a live jazz event at *this pub *?",
    "Template1": "Go to *pub/bar* and *Var1* *Var2*",
    "Template2": "*Var1* *Var2* at *pub/bar*",
    "Var1": [
      "enjoy",
      "listen to"
    ],
    "Var2": [
      "metadata:Music type"
    ],
    "pub": "pub/bar"
  },
  "ACT-2": {
    "Activity": "play minigolf blindfolded at *venue*?",
    "Template1": "Go to *venue* and try *Var1*",
    "Template2": "Play *Var1* at *venue*",
    "Var1": [
      "metadata:Activities"
    ],
    "venue": "venue"
  },
  "ACT-3": {
    "Activity": "go to *this pub* with a friend and order milk?",
    "Template1": "Go to *pub/bar* and *Var1* *Var2*",
    "Template2": "*Var1* *Var2* at *pub/bar*",
    "Var1": [
      "order",
      "buy",
      "try"
    ],
    "Var2": [
      "metadata:Cocktail",
      "metadata:Drinks",
      "metadata:Juice",
      "metadata:Tea",
      "metadata:Coffee",
      "metadata:Beer",
      "metadata:Shots",
      "metadata:Wine",
      "metadata:Gin",
      "metadata:Rum",
      "metadata:Whiskey",
      "metadata:Cognac"
    ],
    "pub": "pub/bar"
  },
  "ACT-4": {
    "Activity": "play Laser Tag at *venue*?",
    "Template1": "Go to *venue* and play *Var1*",
    "Var1": [
      "metadata:Activities"
    ],
    "venue": "venue"
  },
  "ACT-5": {
    "Activity": "play billiards with your hands tied at *venue*?",
    "Template1": "Go to *venue* and play *Var1*",
    "Var1": [
      "metadata:Activities"
    ],
    "venue": "venue"
  },
  "ACT-6": {
    "Activity": "go to *this shooting range*?",
    "Template1": "Go to *venue* and play *Var1*",
    "Var1": [
      "metadata:Activities"
    ],
    "venue": "venue"
  },
  "ACT-7": {
    "Activity": "down a beer?",
    "Template1": "Go to *pub/bar* and *Var1* *Var2* ",
    "Template2": "*Var1* *Var2* at *pub/bar*",
    "Var1": [
      "down"
    ],
    "Var2": [
      "beer",
      "shot",
      "handsfree shot"
    ],
    "pub": "pub/bar"
  },
  "ACT-8": {
    "Activity": "play bowling blindfolded at *venue*?",
    "Template1": "Go to *venue* and play *Var1*",
    "Var1": [
      "metadata:Activities"
    ],
    "venue": "venue"
  },
  "ACT-9": {
    "Activity": "do 10 push-ups in the middle of the *venue*?",
    "Template1": "Go to *Var1* and *Var2*",
    "Template2": "*Var2* at *Var1*",
    "Var1": [
      "Big Ben",
      "London Eye",
      "Westminster Abbey",
      "Tower of London",
      "Monument",
      "Trafalguar Square",
      "Buckingham Palace",
      "St Pancras Station",
      "Marble Arch",
      "Kensignton Palace",
      "St Paul's Cathedral",
      "Picadilly Circus",
      "Oxford Street",
      "Tower Bridge",
      "The Shard",
      "10 Downing Street"
    ],
    "Var2": [
      "do 10 pushups",
      "lie down for 10 seconds"
    ],
    "venue": "venue"
  },
  "ACT-10": {
    "Activity": "play bowling at *venue*?",
    "Template1": "Go to *venue* and play *Var1*",
    "Var1": [
      "metadata:Activities"
    ],
    "venue": "venue"
  },
  "ACT-11": {
    "Activity": "drink and play table tennis at *venue*?",
    "Template1": "Go to *venue* and play *Var1*",
    "Var1": [
      "metadata:Activities"
    ],
    "venue": "venue"
  },
  "ACT-12": {
    "Activity": "go to *this rooftop bar*?",
    "Template1": "Go to *pub/bar*",
    "pub": "pub/bar"
  },
  "ACT-13": {
    "Activity": "play darts blindfolded at *venue*?",
    "Template1": "Go to *venue* and play *Var1*",
    "Var1": [
      "metadata:Activities"
    ],
    "venue": "venue"
  },
  "ACT-14": {
    "Activity": "go pub crawling and have one drink per pub?",
    "Template1": "Go to *pub/bar*, *pub/bar*, *pub/bar* and *Var1* *Var2*",
    "Template2": "*Var1* *Var2* *pub/bar*, *pub/bar*, *pub/bar*",
    "Var1": [
      "order",
      "buy",
      "try"
    ],
    "Var2": [
      "one beer from each",
      "one shot from each",
      "one drink from each",
      "one cocktail from each"
    ],
    "pub": "pub/bar"
  },
  "ACT-15": {
    "Activity": "plank on a bench in *this park*?",
    "Template1": "Go to *park* and *Var1*",
    "Template2": "*Var1* at *park*",
    "Var1": [
      "plank on a bench",
      "have a picnic",
      "yell Marco and see if anyone says Polo",
      "play Charades",
      "wage water balloons war",
      "ride a bike",
      "read a book",
      "do cardio",
      "cycle around",
      "go on a walk whilst listening to a podcast",
      "jog",
      "meditate"
    ],
    "park": "park"
  },
  "ACT-16": {
    "Activity": "go to *this restaurant* wearing pijamas?",
    "Template1": "Go to *restaurant* and *Var1*",
    "Template2": "*Var1* at *restaurant*",
    "Var1": [
      "wear pijamas",
      "plank in the middle of the restaurant wearing a costume"
    ],
    "restaurant": "restaurant"
  },
  "ACT-17": {
    "Activity": "yell Marco and see if anyone says Polo?",
    "Template1": "Go to *park* and *Var1*",
    "Template2": "*Var1* at *park*",
    "Var1": [
      "plank on a bench",
      "have a picnic",
      "yell Marco and see if anyone says Polo",
      "play Charades",
      "wage water balloons war",
      "ride a bike",
      "read a book",
      "do cardio",
      "cycle around",
      "go on a walk whilst listening to a podcast",
      "jog",
      "meditate"
    ],
    "park": "park",
    "anywhere": "anywhere"
  },
  "ACT-18": {
    "Activity": "take a selfie with some random person next to you?",
    "Template1": "Go to *pub/bar* and *Var1* *Var2*",
    "Template2": "*Var1* *Var2* at *pub/bar*",
    "Var1": [
      "hug",
      "take a selfie with",
      "randomly strike a conversation with",
      "offer a drink to",
      "dance with"
    ],
    "Var2": [
      "the person next to you",
      "the bartender",
      "the waiter",
      "someone you've never met before",
      "the cutest person"
    ],
    "pub": "pub/bar",
    "restaurant": "restaurant",
    "park": "park"
  },
  "ACT-19": {
    "Activity": "play charades outdoors?",
    "Template1": "Go to *park* and *Var1*",
    "Template2": "*Var1* at *park*",
    "Var1": [
      "plank on a bench",
      "have a picnic",
      "yell Marco and see if anyone says Polo",
      "play Charades"
    ],
    "anywhere": "anywhere"
  },
  "ACT-20": {
    "Activity": "ride a mehanical bull at *venue*?",
    "Template1": "Go to *venue* and play *Var1*",
    "Var1": [
      "metadata:Activities"
    ],
    "venue": "venue"
  },
  "ACT-21": {
    "Activity": "make water balloons and wage war at *park*?",
    "Template1": "Go to *park* and *Var1*",
    "Template2": "*Var1* at *park*",
    "Var1": [
      "plank on a bench",
      "have a picnic",
      "yell Marco and see if anyone says Polo",
      "play Charades",
      "wage water balloons war",
      "ride a bike",
      "read a book",
      "do cardio",
      "cycle around",
      "go on a walk whilst listening to a podcast",
      "jog",
      "meditate"
    ],
    "park": "park"
  },
  "ACT-22": {
    "Activity": "do a handstand in *city centre*?",
    "Template1": "Go to *Var1* and *Var2*",
    "Template2": "*Var2* at *Var1*",
    "Var1": [
      "Big Ben",
      "London Eye",
      "Westminster Abbey",
      "Tower of London",
      "Monument",
      "Trafalguar Square",
      "Buckingham Palace",
      "St Pancras Station",
      "Marble Arch",
      "Kensignton Palace",
      "St Paul's Cathedral",
      "Picadilly Circus",
      "Oxford Street",
      "Tower Bridge",
      "The Shard",
      "10 Downing Street"
    ],
    "Var2": [
      "do 10 pushups",
      "lie down for 10 seconds"
    ],
    "venue": "venue"
  },
  "ACT-24": {
    "Activity": "try a shisha at *venue*?",
    "Template1": "Go to *pub/bar* and *Var1* *Var2* ",
    "Var1": [
      "enjoy"
    ],
    "Var2": [
      "shisha"
    ],
    "pub": "pub/bar",
    "restaurant": "restaurant"
  },
  "ACT-25": {
    "Activity": "oder something and hug the waitress/waiter at *venue*?",
    "Template1": "Go to *restaurant* and *Var1*",
    "Template2": "*Var1* at *restaurant*",
    "Var1": [
      "whomever loses rock paper scissors pays, after having dinner",
      "offer a flower to the waitress",
      "hug the waiter",
      "whomever finishes last pays",
      "let your friend order for you",
      "let the waiter order for you",
      "blindly choose from the menu",
      "let the waiter choose the card that will pay",
      "someone from the other table to order for you",
      "ask the waiter/waitress on a date"
    ],
    "restaurant": "restaurant"
  },
  "ACT-26": {
    "Activity": "go karting?",
    "Template1": "*Var1* at *venue*",
    "Var1": [
      "go karting"
    ],
    "venue": "venue"
  },
  "ACT-27": {
    "Activity": "buy a shot to the woman/man next to you? (in the club/pub)",
    "Template1": "Go to *pub/bar* and *Var1* a *Var3* to *Var2*",
    "Template2": "*Var1* a *Var3* to *Var2* at *pub/bar*",
    "Var1": [
      "buy",
      "order",
      "offer"
    ],
    "Var2": [
      "the person next to you",
      "the bartender",
      "the waiter",
      "someone you've never met before",
      "the cutest person"
    ],
    "Var3": [
      "metadata:Cocktail",
      "metadata:Drinks",
      "metadata:Beer",
      "metadata:Shots",
      "metadata:Wine",
      "metadata:Gin",
      "metadata:Rum",
      "metadata:Whiskey",
      "metadata:Cognac"
    ],
    "pub": "pub/bar",
    "club": "club"
  },
  "ACT-28": {
    "Activity": "convince someone you’ve never met before to take a selfie with you?",
    "Template1": "Go to *pub/bar* and *Var1* *Var2*",
    "Template2": "*Var1* *Var2* at *pub/bar*",
    "Template3": "Go to *pub/bar* and offer a *Var3* to *Var2*",
    "Var3": [
      "metadata:Cocktail",
      "metadata:Drinks",
      "metadata:Beer",
      "metadata:Shots",
      "metadata:Wine",
      "metadata:Gin",
      "metadata:Rum",
      "metadata:Whiskey",
      "metadata:Cognac"
    ],
    "Var1": [
      "hug",
      "take a selfie with",
      "randomly strike a conversation with",
      "dance with"
    ],
    "Var2": [
      "the person next to you",
      "the bartender",
      "the waiter",
      "someone you've never met before",
      "the cutest person"
    ],
    "pub": "pub/bar",
    "park": "park",
    "club": "club"
  },
  "ACT-29": {
    "Activity": "drink a shot from someone’s bellybutton?",
    "Template1": "Drink a shot from someone's bellybutton at *pub/bar*"
  },
  "ACT-30": {
    "Activity": "invite a girl/boy you’ve never met before to dance?",
    "Template1": "Go to *pub/bar* and *Var1* *Var2*",
    "Template2": "*Var1* *Var2* at *pub/bar*",
    "Template3": "Go to *pub/bar* and offer a *Var3* to *Var2*",
    "Var3": [
      "metadata:Cocktail",
      "metadata:Drinks",
      "metadata:Beer",
      "metadata:Shots",
      "metadata:Wine",
      "metadata:Gin",
      "metadata:Rum",
      "metadata:Whiskey",
      "metadata:Cognac"
    ],
    "Var1": [
      "hug",
      "take a selfie with",
      "randomly strike a conversation with",
      "dance with"
    ],
    "Var2": [
      "the person next to you",
      "the bartender",
      "the waiter",
      "someone you've never met before",
      "the cutest person"
    ],
    "club": "club"
  },
  "ACT-31": {
    "Activity": "offer *a drink* to the cutest person?",
    "Template1": "Go to *pub/bar* and *Var1* a *Var3* to *Var2*",
    "Template2": "*Var1* a *Var3* to *Var2* at *pub/bar*",
    "Var1": [
      "buy",
      "order",
      "offer"
    ],
    "Var2": [
      "the person next to you",
      "the bartender",
      "the waiter",
      "someone you've never met before",
      "the cutest person"
    ],
    "Var3": [
      "metadata:Cocktail",
      "metadata:Drinks",
      "metadata:Beer",
      "metadata:Shots",
      "metadata:Wine",
      "metadata:Gin",
      "metadata:Rum",
      "metadata:Whiskey",
      "metadata:Cognac"
    ],
    "pub": "pub/bar"
  },
  "ACT-32": {
    "Activity": "randomly strike a conversation with someone you liked?",
    "Template1": "Go to *pub/bar* and *Var1* *Var2*",
    "Template2": "*Var1* *Var2* at *pub/bar*",
    "Template3": "Go to *pub/bar* and offer a *Var3* to *Var2*",
    "Var3": [
      "metadata:Cocktail",
      "metadata:Drinks",
      "metadata:Beer",
      "metadata:Shots",
      "metadata:Wine",
      "metadata:Gin",
      "metadata:Rum",
      "metadata:Whiskey",
      "metadata:Cognac"
    ],
    "Var1": [
      "hug",
      "take a selfie with",
      "randomly strike a conversation with",
      "dance with"
    ],
    "Var2": [
      "the person next to you",
      "the bartender",
      "the waiter",
      "someone you've never met before",
      "the cutest person"
    ],
    "pub": "pub/bar"
  },
  "ACT-36": {
    "Activity": "go to *this restaurant* ask the waitress/waiter on a date?",
    "Template1": "Go to *restaurant* and *Var1*",
    "Template2": "*Var1* at *restaurant*",
    "Var1": [
      "whomever loses rock paper scissors pays, after having dinner",
      "offer a flower to the waitress",
      "hug the waiter",
      "whomever finishes last pays",
      "let your friend order for you",
      "let the waiter order for you",
      "blindly choose from the menu",
      "let the waiter choose the card that will pay",
      "someone from the other table to order for you",
      "ask the waiter/waitress on a date"
    ],
    "restaurant": "restaurant"
  },
  "ACT-37": {
    "Activity": "randomly invite someone to dinner with you?",
    "Template1": "Go to *restaurant* and *Var1* *Var2*",
    "Template2": "*Var1* *Var2* at *restaurant*",
    "Var1": [
      "invite someone",
      "invite a friend"
    ],
    "Var2": [
      "for drinks",
      "for dinner",
      "for lunch",
      "for brunch"
    ],
    "pub": "pub/bar",
    "restaurant": "restaurant",
    "club": "club"
  },
  "ACT-38": {
    "Activity": "ask for a hug from the person you like?",
    "Template1": "Go to *pub/bar* and *Var1* *Var2*",
    "Template2": "*Var1* *Var2* at *pub/bar*",
    "Var1": [
      "hug",
      "take a selfie with",
      "randomly strike a conversation with",
      "offer a drink to",
      "dance with"
    ],
    "Var2": [
      "the person next to you",
      "the bartender",
      "the waiter",
      "someone you've never met before",
      "the cutest person"
    ],
    "pub": "pub/bar"
  },
  "ACT-39": {
    "Activity": "dance with a random person from every table?",
    "Template1": "Go to *pub/bar* and *Var1* *Var2*",
    "Template2": "*Var1* *Var2* at *pub/bar*",
    "Template3": "Go to *pub/bar* and offer a *Var3* to *Var2*",
    "Var3": [
      "metadata:Cocktail",
      "metadata:Drinks",
      "metadata:Beer",
      "metadata:Shots",
      "metadata:Wine",
      "metadata:Gin",
      "metadata:Rum",
      "metadata:Whiskey",
      "metadata:Cognac"
    ],
    "Var1": [
      "hug",
      "take a selfie with",
      "randomly strike a conversation with",
      "dance with"
    ],
    "Var2": [
      "the person next to you",
      "the bartender",
      "the waiter",
      "someone you've never met before",
      "the cutest person"
    ],
    "club": "club"
  },
  "ACT-40": {
    "Activity": "send an anonymous drink to someone you like?",
    "Template1": "Go to *pub/bar* and *Var1* *Var2*",
    "Template2": "*Var1* *Var2* at *pub/bar*",
    "Var1": [
      "send anonymous drink to"
    ],
    "Var2": [
      "someone you like",
      "a random person"
    ],
    "pub": "pub/bar",
    "club": "club"
  },
  "ACT-42": {
    "Activity": "ask for a kiss on the cheek?",
    "Template1": "Ask for a kiss on the cheek.",
    "club": "club"
  },
  "ACT-43": {
    "Activity": "try *certain food* at *this restaurant*?",
    "Template1": "Go to *restaurant* and try *Var1*",
    "Template2": "Try *Var1* at *restaurant*",
    "Var1": [
      "metadata:Menu"
    ],
    "restaurant": "restaurant"
  },
  "ACT-46": {
    "Activity": "go to *this restaurant* with your friends and whomever wins rock paper scissors pays?",
    "Template1": "Go to *restaurant* and *Var1*",
    "Template2": "*Var1* at *restaurant*",
    "Var1": [
      "whomever loses rock paper scissors pays",
      "hug the waiter",
      "whomever finishes last pays",
      "let your friend order for you",
      "let the waiter order for you",
      "blindly choose from the menu",
      "let the waiter choose the card that will pay",
      "ask someone from the other table to order for you",
      "ask the waiter/waitress on a date"
    ],
    "restaurant": "restaurant"
  },
  "ACT-47": {
    "Activity": "go to *this restaurant* and after having dinner, offer a flower to the waitress/hug the waiter?",
    "Template1": "Go to *restaurant* and *Var1*",
    "Template2": "*Var1* at *restaurant*",
    "Var1": [
      "whomever loses rock paper scissors pays, after having dinner",
      "offer a flower to the waitress",
      "hug the waiter",
      "whomever finishes last pays",
      "let your friend order for you",
      "let the waiter order for you",
      "blindly choose from the menu",
      "let the waiter choose the card that will pay",
      "someone from the other table to order for you",
      "ask the waiter/waitress on a date"
    ],
    "restaurant": "restaurant"
  },
  "ACT-48": {
    "Activity": "go to *this restaurant* with your friends and whomever finishes last pays?",
    "Template1": "Go to *restaurant* and *Var1*",
    "Template2": "*Var1* at *restaurant*",
    "Var1": [
      "whomever loses rock paper scissors pays",
      "hug the waiter",
      "whomever finishes last pays",
      "let your friend order for you",
      "let the waiter order for you",
      "blindly choose from the menu",
      "let the waiter choose the card that will pay",
      "ask someone from the other table to order for you",
      "ask the waiter/waitress on a date"
    ],
    "restaurant": "restaurant"
  },
  "ACT-49": {
    "Activity": "go to *this restaurant* and let your friend order for you?",
    "Template1": "Go to *restaurant* and *Var1*",
    "Template2": "*Var1* at *restaurant*",
    "Var1": [
      "whomever loses rock paper scissors pays",
      "after having dinner",
      "offer a flower to the waitress",
      "hug the waiter",
      "whomever finishes last pays",
      "let your friend order for you",
      "let the waiter order for you",
      "blindly choose from the menu",
      "let the waiter choose the card that will pay",
      "someone from the other table to order for you",
      "ask the waiter/waitress on a date"
    ],
    "restaurant": "restaurant"
  },
  "ACT-50": {
    "Activity": "go to *this park* and have a picnic with a friend?",
    "Template1": "Go to *park* and *Var1*",
    "Template2": "*Var1* at *park*",
    "Var1": [
      "plank on a bench",
      "have a picnic",
      "yell Marco and see if anyone says Polo",
      "play Charades",
      "wage water balloons war",
      "ride a bike",
      "read a book",
      "do cardio",
      "cycle around",
      "go on a walk whilst listening to a podcast",
      "jog",
      "meditate"
    ],
    "park": "park"
  },
  "ACT-51": {
    "Activity": "go to *this restaurant*?",
    "Template1": "Go to *restaurant*",
    "restaurant": "restaurant"
  },
  "ACT-52": {
    "Activity": "go to *this restaurant* and let the waiter order for you?",
    "Template1": "Go to *restaurant* and *Var1*",
    "Template2": "*Var1* at *restaurant*",
    "Var1": [
      "whomever loses rock paper scissors pays",
      "hug the waiter",
      "whomever finishes last pays",
      "let your friend order for you",
      "let the waiter order for you",
      "blindly choose from the menu",
      "let the waiter choose the card that will pay",
      "ask someone from the other table to order for you",
      "ask the waiter/waitress on a date"
    ],
    "restaurant": "restaurant"
  },
  "ACT-53": {
    "Activity": "go to *this restaurant* and blindly choose from the menu?",
    "Template1": "Go to *restaurant* and *Var1*",
    "Template2": "*Var1* at *restaurant*",
    "Var1": [
      "whomever loses rock paper scissors pays",
      "hug the waiter",
      "whomever finishes last pays",
      "let your friend order for you",
      "let the waiter order for you",
      "blindly choose from the menu",
      "let the waiter choose the card that will pay",
      "ask someone from the other table to order for you",
      "ask the waiter/waitress on a date"
    ],
    "restaurant": "restaurant"
  },
  "ACT-54": {
    "Activity": "go to *this restaurant* and let the waiter choose the card that will pay?",
    "Template1": "Go to *restaurant* and *Var1*",
    "Template2": "*Var1* at *restaurant*",
    "Var1": [
      "whomever loses rock paper scissors pays",
      "hug the waiter",
      "whomever finishes last pays",
      "let your friend order for you",
      "let the waiter order for you",
      "blindly choose from the menu",
      "let the waiter choose the card that will pay",
      "ask someone from the other table to order for you",
      "ask the waiter/waitress on a date"
    ],
    "restaurant": "restaurant"
  },
  "ACT-55": {
    "Activity": "go to *this restaurant* and ask someone from the other table to order for you?",
    "Template1": "Go to *restaurant* and *Var1*",
    "Template2": "*Var1* at *restaurant*",
    "Var1": [
      "whomever loses rock paper scissors pays",
      "hug the waiter",
      "whomever finishes last pays",
      "let your friend order for you",
      "let the waiter order for you",
      "blindly choose from the menu",
      "let the waiter choose the card that will pay",
      "ask someone from the other table to order for you",
      "ask the waiter/waitress on a date"
    ],
    "restaurant": "restaurant"
  },
  "ACT-56": {
    "Activity": "order something to-go and offer it to someone homeless?",
    "Template1": "Go to *Var1* and *Var2*",
    "Template2": "*Var2* at *Var1*",
    "Var1": [
      "Fast-food",
      "McDonalds",
      "KFC",
      "Burger King",
      "Leon",
      "etc. "
    ],
    "Var2": [
      "order something to go for a homeless person"
    ],
    "venue": "venue"
  },
  "ACT-57": {
    "Activity": "plank in the middle of *this restaurant*?",
    "Template1": "Go to *restaurant* *Var1*",
    "Var1": [
      "wearing pijamas",
      "wearing a costume",
      "and plank in the middle of the restaurant"
    ],
    "restaurant": "restaurant"
  },
  "ACT-58": {
    "Activity": "have dinner at *restaurant* ask the waitress/waiter on a date?",
    "Template1": "Go to *restaurant* and *Var1*",
    "Template2": "*Var1* at *restaurant*",
    "Var1": [
      "whomever loses rock paper scissors pays",
      "hug the waiter",
      "whomever finishes last pays",
      "let your friend order for you",
      "let the waiter order for you",
      "blindly choose from the menu",
      "let the waiter choose the card that will pay",
      "ask someone from the other table to order for you",
      "ask the waiter/waitress on a date"
    ],
    "restaurant": "restaurant"
  },
  "ACT-60": {
    "Activity": "go to live jazz at *this pub*?",
    "Template1": "Go to *pub/bar* and *Var1* *Var2*",
    "Template2": "*Var1* *Var2* at *pub/bar*",
    "Var1": [
      "enjoy",
      "listen to"
    ],
    "Var2": [
      "metadata:Music type"
    ],
    "pub": "pub/bar"
  },
  "ACT-61": {
    "Activity": "go biking on *this course*?",
    "Template1": "Go to *park* and *Var1*",
    "Template2": "*Var1* at *park*",
    "Var1": [
      "plank on a bench",
      "have a picnic",
      "yell Marco and see if anyone says Polo",
      "play Charades",
      "wage water balloons war",
      "ride a bike",
      "read a book",
      "do cardio",
      "cycle around",
      "go on a walk whilst listening to a podcast",
      "jog",
      "meditate"
    ],
    "park": "park"
  },
  "ACT-63": {
    "Activity": "have fresh vegetable drink at *venue*?",
    "Template1": "Go to *pub/bar* and *Var1* a *Var2*",
    "Var1": [
      "enjoy"
    ],
    "Var2": [
      "metadata:Coffee",
      "metadata:Juice"
    ],
    "venue": "venue"
  },
  "ACT-64": {
    "Activity": "go on a picnic on a rooftop?",
    "Template1": "Go to *park* and *Var1*",
    "Template2": "*Var1* at *park*",
    "Var1": [
      "plank on a bench",
      "have a picnic",
      "yell Marco and see if anyone says Polo",
      "play Charades",
      "wage water balloons war",
      "ride a bike",
      "read a book",
      "do cardio",
      "cycle around",
      "go on a walk whilst listening to a podcast",
      "jog",
      "meditate"
    ],
    "park": "park"
  },
  "ACT-65": {
    "Activity": "have a refreshing cocktail at *venue*?",
    "Template1": "Go to *pub/bar* and *Var1* *Var2*",
    "Var1": [
      "enjoy"
    ],
    "Var2": [
      "metadata:Drinks"
    ],
    "venue": "venue"
  },
  "ACT-69": {
    "Activity": "read *this book*?",
    "Template1": "Go to *park* and *Var1*",
    "Template2": "*Var1* at *park*",
    "Var1": [
      "plank on a bench",
      "have a picnic",
      "yell Marco and see if anyone says Polo",
      "play Charades",
      "wage water balloons war",
      "ride a bike",
      "read a book",
      "do cardio",
      "cycle around",
      "go on a walk whilst listening to a podcast",
      "jog",
      "meditate"
    ],
    "venue": "venue",
    "park": "park"
  },
  "ACT-70": {
    "Activity": "watch *this movie*?",
    "Template1": "Go to *cinema* and watch *movie*",
    "venue": "venue"
  },
  "ACT-75": {
    "Activity": "take a boat trip?",
    "Template1": "Go to *venue* and *Var1*",
    "Var1": [
      "take a boat trip"
    ],
    "venue": "venue"
  },
  "ACT-79": {
    "Activity": "do  a handstand?",
    "Template1": "Go to *Var1* and *Var2*",
    "Template2": "*Var2* at *Var1*",
    "Var1": [
      "Big Ben",
      "London Eye",
      "Westminster Abbey",
      "Tower of London",
      "Monument",
      "Trafalguar Square",
      "Buckingham Palace",
      "St Pancras Station",
      "Marble Arch",
      "Kensignton Palace",
      "St Paul's Cathedral",
      "Picadilly Circus",
      "Oxford Street",
      "Tower Bridge",
      "The Shard",
      "10 Downing Street"
    ],
    "Var2": [
      "do 10 pushups",
      "lie down for 10 seconds"
    ],
    "venue": "venue"
  },
  "ACT-80": {
    "Activity": "do the ice bucket challenge?",
    "Template1": "Do  the ice bucket challenge."
  },
  "ACT-90": {
    "Activity": "swap clothes with friend?",
    "Template1": "Swap clothes with a friend."
  },
  "ACT-96": {
    "Activity": "connect a whole bunch of straws together then drink soda from across the room?",
    "Template1": "Connect a whole bunch of straws together and have a drink from across the room."
  },
  "ACT-98": {
    "Activity": "Play a drinking game (21)?",
    "Template1": "Go to *pub/bar* and *Var1* *Var2*",
    "Template2": "*Var1* *Var2* at *pub/bar*",
    "Template3": "Piggy-back ride to *pub/bar*",
    "Var1": [
      "play"
    ],
    "Var2": [
      "a drinking game",
      "21",
      "power hour",
      "would you rather"
    ],
    "pub": "pub/bar"
  },
  "ACT-100": {
    "Activity": "play power hour - shot of beer every minute for 60 minutes?",
    "Template1": "Go to *pub/bar* and *Var1* *Var2*",
    "Template2": "*Var1* *Var2* at *pub/bar*",
    "Template3": "Piggy-back ride to *pub/bar*",
    "Var1": [
      "play"
    ],
    "Var2": [
      "a drinking game",
      "21",
      "power hour",
      "would you rather"
    ],
    "pub": "pub/bar"
  },
  "ACT-104": {
    "Activity": "do 10 situps in *this park* ?",
    "Template1": "Go to *park* and *Var1*",
    "Template2": "*Var1* at *park*",
    "Var1": [
      "plank on a bench",
      "have a picnic",
      "yell Marco and see if anyone says Polo",
      "play Charades",
      "wage water balloons war",
      "ride a bike",
      "read a book",
      "do cardio",
      "cycle around",
      "go on a walk whilst listening to a podcast",
      "jog",
      "meditate"
    ],
    "park": "park"
  },
  "ACT-105": {
    "Activity": "take a coffee shot at *venue*?",
    "Template1": "Go to *cafe* and *Var1*",
    "Template2": "*Var1* at *cafe*",
    "Var1": [
      "have a coffee shot",
      "have a coffee"
    ],
    "venue": "venue"
  },
  "ACT-106": {
    "Activity": "cycle in *this park* while listening to music?",
    "Template1": "Go to *park* and *Var1*",
    "Template2": "*Var1* at *park*",
    "Var1": [
      "plank on a bench",
      "have a picnic",
      "yell Marco and see if anyone says Polo",
      "play Charades",
      "wage water balloons war",
      "ride a bike",
      "read a book",
      "do cardio",
      "cycle around",
      "go on a walk whilst listening to a podcast",
      "jog",
      "meditate"
    ],
    "park": "park"
  },
  "ACT-107": {
    "Activity": "go for a walk while listening to a podcast?",
    "Template1": "Go to *park* and *Var1*",
    "Template2": "*Var1* at *park*",
    "Var1": [
      "plank on a bench",
      "have a picnic",
      "yell Marco and see if anyone says Polo",
      "play Charades",
      "wage water balloons war",
      "ride a bike",
      "read a book",
      "do cardio",
      "cycle around",
      "go on a walk whilst listening to a podcast",
      "jog",
      "meditate"
    ],
    "park": "park"
  },
  "ACT-108": {
    "Activity": "have a shot at *pub*?",
    "Template1": "Go to *pub/bar* and *Var1* *Var2*",
    "Template2": "*Var1* *Var2* at *pub/bar*",
    "Var1": [
      "order",
      "buy",
      "try"
    ],
    "Var2": [
      "metadata:Cocktail",
      "metadata:Drinks",
      "metadata:Beer",
      "metadata:Shots",
      "metadata:Wine",
      "metadata:Gin",
      "metadata:Rum",
      "metadata:Whiskey",
      "metadata:Cognac"
    ],
    "pub": "pub/bar"
  },
  "ACT-109": {
    "Activity": "read this book at *park*?",
    "Template1": "Go to *park* and *Var1*",
    "Template2": "*Var1* at *park*",
    "Var1": [
      "plank on a bench",
      "have a picnic",
      "yell Marco and see if anyone says Polo",
      "play Charades",
      "wage water balloons war",
      "ride a bike",
      "read a book",
      "do cardio",
      "cycle around",
      "go on a walk whilst listening to a podcast",
      "jog",
      "meditate"
    ],
    "park": "park"
  },
  "ACT-110": {
    "Activity": "go jogging on *this course*?",
    "Template1": "Go to *park* and *Var1*",
    "Template2": "*Var1* at *park*",
    "Var1": [
      "plank on a bench",
      "have a picnic",
      "yell Marco and see if anyone says Polo",
      "play Charades",
      "wage water balloons war",
      "ride a bike",
      "read a book",
      "do cardio",
      "cycle around",
      "go on a walk whilst listening to a podcast",
      "jog",
      "meditate"
    ],
    "park": "park"
  },
  "ACT-111": {
    "Activity": "meditate in *this park*?",
    "Template1": "Go to *park* and *Var1*",
    "Template2": "*Var1* at *park*",
    "Var1": [
      "plank on a bench",
      "have a picnic",
      "yell Marco and see if anyone says Polo",
      "play Charades",
      "wage water balloons war",
      "ride a bike",
      "read a book",
      "do cardio",
      "cycle around",
      "go on a walk whilst listening to a podcast",
      "jog",
      "meditate"
    ],
    "park": "park"
  },
  "ACT-112": {
    "Activity": "eat *fish* at *restaurant*?",
    "Template1": "Go to *restaurant* and try *Var1*",
    "Template2": "Try *Var1* at *restaurant*",
    "Var1": [
      "metadata:Menu"
    ],
    "restaurant": "restaurant"
  },
  "ACT-113": {
    "Activity": "work out at *gym*?",
    "Template1": "Go to *gym* and workout",
    "venue": "venue"
  },
  "ACT-119": {
    "Activity": "have a lemonade?",
    "Template1": "Go to *pub/bar* and *Var1* *Var2*",
    "Template2": "*Var1* *Var2* at *pub/bar*",
    "Var1": [
      "order",
      "buy",
      "try"
    ],
    "Var2": [
      "lemonade",
      "mocktail",
      "fruit juice",
      "fruit cocktail",
      "metadata:Tea",
      "metadata:Coffee",
      "metadata:Juice"
    ],
    "pub": "pub/bar"
  },
  "ACT-120": {
    "Activity": "buy a shot to the woman/man next to you. (in the club)",
    "Template1": "*Var1* *club*",
    "Var1": [
      "Buy a shot to the person next to you at",
      "Offer a drink to the cutest person next to you at",
		{"Do the robot in the middle of": 21}
    ],
    "club": "club"
  },
  "ACT-121": {
    "Activity": "pub crawl alone and make 1 new friend in each pub.",
    "Template1": "Go to *pub/bar*, *pub/bar*, *pub/bar* and *Var1* *Var2*",
    "Template2": "*Var1* *Var2* *pub/bar*, *pub/bar*, *pub/bar*",
    "Var1": [
      "make"
    ],
    "Var2": [
      "one friend from each"
    ],
    "pub": "pub/bar"
  },
  "ACT-122": {
    "Activity": "have an ale drinking contest at *pub*",
    "Template1": "Go to *pub/bar* and have *Var1*",
    "Template2": "Have *Var1* at *pub/bar*",
    "Var1": [
      "a beer drinking contest",
      "an ale drinking contest"
    ],
    "pub": "pub/bar"
  },
  "ACT-123": {
    "Activity": "play 'would you rather' at *pub*",
    "Template1": "Go to *pub/bar* and *Var1* *Var2*",
    "Template2": "*Var1* *Var2* at *pub/bar*",
    "Template3": "Piggy-back ride to *pub/bar*",
    "Var1": [
      "play"
    ],
    "Var2": [
      "a drinking game",
      "21",
      "power hour",
      "would you rather"
    ],
    "pub": "pub/bar"
  },
  "ACT-124": {
    "Activity": "order while carying someone piggy-back style in *this pub*?",
    "Template1": "Go to *pub/bar* and *Var1* *Var2*",
    "Template2": "*Var1* *Var2* at *pub/bar*",
    "Template3": "Piggy-back ride to *pub/bar*",
    "Var1": [
      "play"
    ],
    "Var2": [
      "a drinking game",
      "21",
      "power hour",
      "would you rather"
    ],
    "pub": "pub/bar"
  },
  "ACT-126": {
    "Activity": "have a 'guess what I've put in the glass' game at *venue*",
    "Template1": "Play *Var1* at *venue*",
    "Var1": [
      "would you rather",
      "the whisper challenge",
      "'Guess what I've put in the glass' "
    ],
    "pub": "pub/bar"
  },
  "ACT-127": {
    "Activity": "go to *this pub* and buy the bartender a drink?",
    "Template1": "Go to *pub/bar* and *Var1* *Var2*",
    "Template2": "*Var1* *Var2* at *pub/bar*",
    "Template3": "Go to *pub/bar* and offer a *Var3* to *Var2*",
    "Var3": [
      "metadata:Cocktail",
      "metadata:Drinks",
      "metadata:Beer",
      "metadata:Shots",
      "metadata:Wine",
      "metadata:Gin",
      "metadata:Rum",
      "metadata:Whiskey",
      "metadata:Cognac"
    ],
    "Var1": [
      "hug",
      "take a selfie with",
      "randomly strike a conversation with",
      "dance with"
    ],
    "Var2": [
      "the person next to you",
      "the bartender",
      "the waiter",
      "someone you've never met before",
      "the cutest person"
    ],
    "pub": "pub/bar"
  },
  "ACT-128": {
    "Activity": "go to *this pub* and listen to a stranger's life story?",
    "Template1": "Go to *pub/bar* and *Var1* *Var2*",
    "Template2": "*Var1* *Var2* at *pub/bar*",
    "Var1": [
      "send anonymous drink to"
    ],
    "Var2": [
      "someone you like",
      "a random person"
    ],
    "pub": "pub/bar"
  },
  "ACT-129": {
    "Activity": "have a handsfree shot?",
    "Template1": "Go to *pub/bar* and *Var1* a *Var2* ",
    "Template2": "*Var1* a *Var2* at *pub/bar*",
    "Var1": [
      "down"
    ],
    "Var2": [
      "handsfree shot",
      "shot",
      "beer"
    ],
    "pub": "pub/bar",
    "club": "club"
  },
  "ACT-130": {
    "Activity": "pick a drink for your friend?",
    "Template1": "Go to *pub/bar* and *Var1*",
    "Template2": "*Var1* at *pub/bar* ",
    "Var1": [
      "choose a drink blindly from the menu",
      "let the bartender order for you",
      "let your friend order for you",
      "let someone at other table order for you",
      "choose your friend's drink"
    ],
    "pub": "pub/bar",
    "club": "club"
  },
  "ACT-131": {
    "Activity": "offer a drink to the cutest person in the club?",
    "Template1": "*Var1* *club*",
    "Var1": [
      "Buy a shot to the person next to you at",
      "Offer a drink to the cutest person next to you at",
      "Do the robot in the middle of"
    ],
    "club": "club"
  },
  "ACT-132": {
    "Activity": "do the robot in the middle of the club?",
    "Template1": "*Var1* *club*",
    "Var1": [
      "Buy a shot to the person next to you at",
      "Offer a drink to the cutest person next to you at",
      "Do the robot in the middle of"
    ],
    "club": "club"
  },
  "ACT-135": {
    "Activity": "drink a shot set on fire?",
    "Template1": "Go to *pub/bar* and *Var1* a *Var2* ",
    "Template2": "*Var1* a *Var2* at *pub/bar*",
    "Var1": [
      "down"
    ],
    "Var2": [
      "beer",
      "shot",
      "handsfree shot"
    ],
    "pub": "pub/bar",
    "club": "club"
  },
  "ACT-136": {
    "Activity": "come up with your own cocktail/shot and ask the bartender to make it for you?",
    "Template1": "Go to *pub/bar* and *Var1* *Var2*",
    "Template2": "*Var1* *Var2* at *pub/bar*",
    "Var1": [
      "ask the bartender to make your own "
    ],
    "Var2": [
      "drink",
      "shot",
      "cocktail"
    ],
    "pub": "pub/bar"
  },
  "ACT-137": {
    "Activity": "have a drink you’ve never tried before at *pub*?",
    "Template1": "Go to *pub/bar* and *Var1* a *Var2*",
    "Template2": "*Var1* a *Var2* at *pub/bar*",
    "Var1": [
      "order",
      "buy",
      "try"
    ],
    "Var2": [
      "metadata:Cocktail",
      "metadata:Drinks",
      "metadata:Beer",
      "metadata:Shots",
      "metadata:Wine",
      "metadata:Gin",
      "metadata:Rum",
      "metadata:Whiskey",
      "metadata:Cognac"
    ],
    "pub": "pub/bar"
  },
  "ACT-138": {
    "Activity": "go to a club and ask the DJ to play a song for you?",
    "Template1": "Go to *club* and ask the DJ to play a song for you",
    "club": "club"
  },
  "ACT-139": {
    "Activity": "go on the AcelorMittal Orbit slide?",
    "Template1": "Go *Var1* at *venue*",
    "Var1": [
      "on the AcelorMittal Orbit slide",
      "paintballing",
      "to Spy Academy",
      "climb the O2 Arena",
      "climb the Ice Wall",
      "Zorbing",
      "Scuba Diving",
      "rafting",
      "ride a speedboat down the Thames",
      "on an Urban Aerial Adventure",
      "Rap Jumping",
      "Axe Throwing",
      "Flyboarding",
      "Sword Fighting",
      "Ice Karting",
      "to \"Trapped in a prison van escape\"",
      "clay shooting",
      "bungee jumping",
      "sky diving",
      "parachuting",
      "gliding",
      "flowboarding",
      "moto-crossing",
      "off-roading"
    ],
    "venue": "venue"
  },
  "ACT-140": {
    "Activity": "go paintballing?",
    "Template1": "Go *Var1* at *venue*",
    "Var1": [
      "on the AcelorMittal Orbit slide",
      "paintballing",
      "to Spy Academy",
      "climb the O2 Arena",
      "climb the Ice Wall",
      "Zorbing",
      "Scuba Diving",
      "rafting",
      "ride a speedboat down the Thames",
      "on an Urban Aerial Adventure",
      "Rap Jumping",
      "Axe Throwing",
      "Flyboarding",
      "Sword Fighting",
      "Ice Karting",
      "to \"Trapped in a prison van escape\"",
      "clay shooting",
      "bungee jumping",
      "sky diving",
      "parachuting",
      "gliding",
      "flowboarding",
      "moto-crossing",
      "off-roading"
    ],
    "venue": "venue"
  },
  "ACT-141": {
    "Activity": "go to ‘Trapped in a room with a zombie escape experience’?",
    "Template1": "Go *Var1* at *venue*",
    "Var1": [
      "on the AcelorMittal Orbit slide",
      "paintballing",
      "to Spy Academy",
      "climb the O2 Arena",
      "climb the Ice Wall",
      "Zorbing",
      "Scuba Diving",
      "rafting",
      "ride a speedboat down the Thames",
      "on an Urban Aerial Adventure",
      "Rap Jumping",
      "Axe Throwing",
      "Flyboarding",
      "Sword Fighting",
      "Ice Karting",
      "to \"Trapped in a prison van escape\"",
      "clay shooting",
      "bungee jumping",
      "sky diving",
      "parachuting",
      "gliding",
      "flowboarding",
      "moto-crossing",
      "off-roading"
    ],
    "venue": "venue"
  },
  "ACT-142": {
    "Activity": "go to Spy Academy?",
    "Template1": "Go *Var1* at *venue*",
    "Var1": [
      "on the AcelorMittal Orbit slide",
      "paintballing",
      "to Spy Academy",
      "climb the O2 Arena",
      "climb the Ice Wall",
      "Zorbing",
      "Scuba Diving",
      "rafting",
      "ride a speedboat down the Thames",
      "on an Urban Aerial Adventure",
      "Rap Jumping",
      "Axe Throwing",
      "Flyboarding",
      "Sword Fighting",
      "Ice Karting",
      "to \"Trapped in a prison van escape\"",
      "clay shooting",
      "bungee jumping",
      "sky diving",
      "parachuting",
      "gliding",
      "flowboarding",
      "moto-crossing",
      "off-roading"
    ],
    "venue": "venue"
  },
  "ACT-143": {
    "Activity": "Go climb the O2 Arena?",
    "Template1": "Go *Var1* at *venue*",
    "Var1": [
      "on the AcelorMittal Orbit slide",
      "paintballing",
      "to Spy Academy",
      "climb the O2 Arena",
      "climb the Ice Wall",
      "Zorbing",
      "Scuba Diving",
      "rafting",
      "ride a speedboat down the Thames",
      "on an Urban Aerial Adventure",
      "Rap Jumping",
      "Axe Throwing",
      "Flyboarding",
      "Sword Fighting",
      "Ice Karting",
      "to \"Trapped in a prison van escape\"",
      "clay shooting",
      "bungee jumping",
      "sky diving",
      "parachuting",
      "gliding",
      "flowboarding",
      "moto-crossing",
      "off-roading"
    ],
    "venue": "venue"
  },
  "ACT-144": {
    "Activity": "go climb the Ice Wall?",
    "Template1": "Go *Var1* at *venue*",
    "Var1": [
      "on the AcelorMittal Orbit slide",
      "paintballing",
      "to Spy Academy",
      "climb the O2 Arena",
      "climb the Ice Wall",
      "Zorbing",
      "Scuba Diving",
      "rafting",
      "ride a speedboat down the Thames",
      "on an Urban Aerial Adventure",
      "Rap Jumping",
      "Axe Throwing",
      "Flyboarding",
      "Sword Fighting",
      "Ice Karting",
      "to \"Trapped in a prison van escape\"",
      "clay shooting",
      "bungee jumping",
      "sky diving",
      "parachuting",
      "gliding",
      "flowboarding",
      "moto-crossing",
      "off-roading"
    ],
    "venue": "venue"
  },
  "ACT-145": {
    "Activity": "go Zorbing?",
    "Template1": "Go *Var1* at *venue*",
    "Var1": [
      "on the AcelorMittal Orbit slide",
      "paintballing",
      "to Spy Academy",
      "climb the O2 Arena",
      "climb the Ice Wall",
      "Zorbing",
      "Scuba Diving",
      "rafting",
      "ride a speedboat down the Thames",
      "on an Urban Aerial Adventure",
      "Rap Jumping",
      "Axe Throwing",
      "Flyboarding",
      "Sword Fighting",
      "Ice Karting",
      "to \"Trapped in a prison van escape\"",
      "clay shooting",
      "bungee jumping",
      "sky diving",
      "parachuting",
      "gliding",
      "flowboarding",
      "moto-crossing",
      "off-roading"
    ],
    "venue": "venue"
  },
  "ACT-146": {
    "Activity": "go Scuba diving?",
    "Template1": "Go *Var1* at *venue*",
    "Var1": [
      "on the AcelorMittal Orbit slide",
      "paintballing",
      "to Spy Academy",
      "climb the O2 Arena",
      "climb the Ice Wall",
      "Zorbing",
      "Scuba Diving",
      "rafting",
      "ride a speedboat down the Thames",
      "on an Urban Aerial Adventure",
      "Rap Jumping",
      "Axe Throwing",
      "Flyboarding",
      "Sword Fighting",
      "Ice Karting",
      "to \"Trapped in a prison van escape\"",
      "clay shooting",
      "bungee jumping",
      "sky diving",
      "parachuting",
      "gliding",
      "flowboarding",
      "moto-crossing",
      "off-roading"
    ],
    "venue": "venue"
  },
  "ACT-147": {
    "Activity": "go rafting?",
    "Template1": "Go *Var1* at *venue*",
    "Var1": [
      "on the AcelorMittal Orbit slide",
      "paintballing",
      "to Spy Academy",
      "climb the O2 Arena",
      "climb the Ice Wall",
      "Zorbing",
      "Scuba Diving",
      "rafting",
      "ride a speedboat down the Thames",
      "on an Urban Aerial Adventure",
      "Rap Jumping",
      "Axe Throwing",
      "Flyboarding",
      "Sword Fighting",
      "Ice Karting",
      "to \"Trapped in a prison van escape\"",
      "clay shooting",
      "bungee jumping",
      "sky diving",
      "parachuting",
      "gliding",
      "flowboarding",
      "moto-crossing",
      "off-roading"
    ],
    "venue": "venue"
  },
  "ACT-148": {
    "Activity": "Go ride a Speedboat down the Thames?",
    "Template1": "Go *Var1* at *venue*",
    "Var1": [
      "on the AcelorMittal Orbit slide",
      "paintballing",
      "to Spy Academy",
      "climb the O2 Arena",
      "climb the Ice Wall",
      "Zorbing",
      "Scuba Diving",
      "rafting",
      "ride a speedboat down the Thames",
      "on an Urban Aerial Adventure",
      "Rap Jumping",
      "Axe Throwing",
      "Flyboarding",
      "Sword Fighting",
      "Ice Karting",
      "to \"Trapped in a prison van escape\"",
      "clay shooting",
      "bungee jumping",
      "sky diving",
      "parachuting",
      "gliding",
      "flowboarding",
      "moto-crossing",
      "off-roading"
    ],
    "venue": "venue"
  },
  "ACT-149": {
    "Activity": "go on an Urban Aerial Adventure?",
    "Template1": "Go *Var1* at *venue*",
    "Var1": [
      "on the AcelorMittal Orbit slide",
      "paintballing",
      "to Spy Academy",
      "climb the O2 Arena",
      "climb the Ice Wall",
      "Zorbing",
      "Scuba Diving",
      "rafting",
      "ride a speedboat down the Thames",
      "on an Urban Aerial Adventure",
      "Rap Jumping",
      "Axe Throwing",
      "Flyboarding",
      "Sword Fighting",
      "Ice Karting",
      "to \"Trapped in a prison van escape\"",
      "clay shooting",
      "bungee jumping",
      "sky diving",
      "parachuting",
      "gliding",
      "flowboarding",
      "moto-crossing",
      "off-roading"
    ],
    "venue": "venue"
  },
  "ACT-150": {
    "Activity": "go Rap Jumping?",
    "Template1": "Go *Var1* at *venue*",
    "Var1": [
      "on the AcelorMittal Orbit slide",
      "paintballing",
      "to Spy Academy",
      "climb the O2 Arena",
      "climb the Ice Wall",
      "Zorbing",
      "Scuba Diving",
      "rafting",
      "ride a speedboat down the Thames",
      "on an Urban Aerial Adventure",
      "Rap Jumping",
      "Axe Throwing",
      "Flyboarding",
      "Sword Fighting",
      "Ice Karting",
      "to \"Trapped in a prison van escape\"",
      "clay shooting",
      "bungee jumping",
      "sky diving",
      "parachuting",
      "gliding",
      "flowboarding",
      "moto-crossing",
      "off-roading"
    ],
    "venue": "venue"
  },
  "ACT-151": {
    "Activity": "go Axe Throwing?",
    "Template1": "Go *Var1* at *venue*",
    "Var1": [
      "on the AcelorMittal Orbit slide",
      "paintballing",
      "to Spy Academy",
      "climb the O2 Arena",
      "climb the Ice Wall",
      "Zorbing",
      "Scuba Diving",
      "rafting",
      "ride a speedboat down the Thames",
      "on an Urban Aerial Adventure",
      "Rap Jumping",
      "Axe Throwing",
      "Flyboarding",
      "Sword Fighting",
      "Ice Karting",
      "to \"Trapped in a prison van escape\"",
      "clay shooting",
      "bungee jumping",
      "sky diving",
      "parachuting",
      "gliding",
      "flowboarding",
      "moto-crossing",
      "off-roading"
    ],
    "venue": "venue"
  },
  "ACT-152": {
    "Activity": "go Flyboarding?",
    "Template1": "Go *Var1* at *venue*",
    "Var1": [
      "on the AcelorMittal Orbit slide",
      "paintballing",
      "to Spy Academy",
      "climb the O2 Arena",
      "climb the Ice Wall",
      "Zorbing",
      "Scuba Diving",
      "rafting",
      "ride a speedboat down the Thames",
      "on an Urban Aerial Adventure",
      "Rap Jumping",
      "Axe Throwing",
      "Flyboarding",
      "Sword Fighting",
      "Ice Karting",
      "to \"Trapped in a prison van escape\"",
      "clay shooting",
      "bungee jumping",
      "sky diving",
      "parachuting",
      "gliding",
      "flowboarding",
      "moto-crossing",
      "off-roading"
    ],
    "venue": "venue"
  },
  "ACT-153": {
    "Activity": "go Sword Fighting?",
    "Template1": "Go *Var1* at *venue*",
    "Var1": [
      "on the AcelorMittal Orbit slide",
      "paintballing",
      "to Spy Academy",
      "climb the O2 Arena",
      "climb the Ice Wall",
      "Zorbing",
      "Scuba Diving",
      "rafting",
      "ride a speedboat down the Thames",
      "on an Urban Aerial Adventure",
      "Rap Jumping",
      "Axe Throwing",
      "Flyboarding",
      "Sword Fighting",
      "Ice Karting",
      "to \"Trapped in a prison van escape\"",
      "clay shooting",
      "bungee jumping",
      "sky diving",
      "parachuting",
      "gliding",
      "flowboarding",
      "moto-crossing",
      "off-roading"
    ],
    "venue": "venue"
  },
  "ACT-154": {
    "Activity": "go Ice karting?",
    "Template1": "Go *Var1* at *venue*",
    "Var1": [
      "on the AcelorMittal Orbit slide",
      "paintballing",
      "to Spy Academy",
      "climb the O2 Arena",
      "climb the Ice Wall",
      "Zorbing",
      "Scuba Diving",
      "rafting",
      "ride a speedboat down the Thames",
      "on an Urban Aerial Adventure",
      "Rap Jumping",
      "Axe Throwing",
      "Flyboarding",
      "Sword Fighting",
      "Ice Karting",
      "to \"Trapped in a prison van escape\"",
      "clay shooting",
      "bungee jumping",
      "sky diving",
      "parachuting",
      "gliding",
      "flowboarding",
      "moto-crossing",
      "off-roading"
    ],
    "venue": "venue"
  },
  "ACT-155": {
    "Activity": "go to \"Trapped in a prison van escape\"?",
    "Template1": "Go *Var1* at *venue*",
    "Var1": [
      "on the AcelorMittal Orbit slide",
      "paintballing",
      "to Spy Academy",
      "climb the O2 Arena",
      "climb the Ice Wall",
      "Zorbing",
      "Scuba Diving",
      "rafting",
      "ride a speedboat down the Thames",
      "on an Urban Aerial Adventure",
      "Rap Jumping",
      "Axe Throwing",
      "Flyboarding",
      "Sword Fighting",
      "Ice Karting",
      "to \"Trapped in a prison van escape\"",
      "clay shooting",
      "bungee jumping",
      "sky diving",
      "parachuting",
      "gliding",
      "flowboarding",
      "moto-crossing",
      "off-roading"
    ],
    "venue": "venue"
  },
  "ACT-156": {
    "Activity": "go clay shooting?",
    "Template1": "Go *Var1* at *venue*",
    "Var1": [
      "on the AcelorMittal Orbit slide",
      "paintballing",
      "to Spy Academy",
      "climb the O2 Arena",
      "climb the Ice Wall",
      "Zorbing",
      "Scuba Diving",
      "rafting",
      "ride a speedboat down the Thames",
      "on an Urban Aerial Adventure",
      "Rap Jumping",
      "Axe Throwing",
      "Flyboarding",
      "Sword Fighting",
      "Ice Karting",
      "to \"Trapped in a prison van escape\"",
      "clay shooting",
      "bungee jumping",
      "sky diving",
      "parachuting",
      "gliding",
      "flowboarding",
      "moto-crossing",
      "off-roading"
    ],
    "venue": "venue"
  },
  "ACT-157": {
    "Activity": "go bungee jumping *here*?",
    "Template1": "Go *Var1* at *venue*",
    "Var1": [
      "on the AcelorMittal Orbit slide",
      "paintballing",
      "to Spy Academy",
      "climb the O2 Arena",
      "climb the Ice Wall",
      "Zorbing",
      "Scuba Diving",
      "rafting",
      "ride a speedboat down the Thames",
      "on an Urban Aerial Adventure",
      "Rap Jumping",
      "Axe Throwing",
      "Flyboarding",
      "Sword Fighting",
      "Ice Karting",
      "to \"Trapped in a prison van escape\"",
      "clay shooting",
      "bungee jumping",
      "sky diving",
      "parachuting",
      "gliding",
      "flowboarding",
      "moto-crossing",
      "off-roading"
    ],
    "venue": "venue"
  },
  "ACT-158": {
    "Activity": "go sky diving *here*?",
    "Template1": "Go *Var1* at *venue*",
    "Var1": [
      "on the AcelorMittal Orbit slide",
      "paintballing",
      "to Spy Academy",
      "climb the O2 Arena",
      "climb the Ice Wall",
      "Zorbing",
      "Scuba Diving",
      "rafting",
      "ride a speedboat down the Thames",
      "on an Urban Aerial Adventure",
      "Rap Jumping",
      "Axe Throwing",
      "Flyboarding",
      "Sword Fighting",
      "Ice Karting",
      "to \"Trapped in a prison van escape\"",
      "clay shooting",
      "bungee jumping",
      "sky diving",
      "parachuting",
      "gliding",
      "flowboarding",
      "moto-crossing",
      "off-roading"
    ],
    "venue": "venue"
  },
  "ACT-159": {
    "Activity": "go parachuting *here*?",
    "Template1": "Go *Var1* at *venue*",
    "Var1": [
      "on the AcelorMittal Orbit slide",
      "paintballing",
      "to Spy Academy",
      "climb the O2 Arena",
      "climb the Ice Wall",
      "Zorbing",
      "Scuba Diving",
      "rafting",
      "ride a speedboat down the Thames",
      "on an Urban Aerial Adventure",
      "Rap Jumping",
      "Axe Throwing",
      "Flyboarding",
      "Sword Fighting",
      "Ice Karting",
      "to \"Trapped in a prison van escape\"",
      "clay shooting",
      "bungee jumping",
      "sky diving",
      "parachuting",
      "gliding",
      "flowboarding",
      "moto-crossing",
      "off-roading"
    ],
    "venue": "venue"
  },
  "ACT-160": {
    "Activity": "go gliding *here*?",
    "Template1": "Go *Var1* at *venue*",
    "Var1": [
      "on the AcelorMittal Orbit slide",
      "paintballing",
      "to Spy Academy",
      "climb the O2 Arena",
      "climb the Ice Wall",
      "Zorbing",
      "Scuba Diving",
      "rafting",
      "ride a speedboat down the Thames",
      "on an Urban Aerial Adventure",
      "Rap Jumping",
      "Axe Throwing",
      "Flyboarding",
      "Sword Fighting",
      "Ice Karting",
      "to \"Trapped in a prison van escape\"",
      "clay shooting",
      "bungee jumping",
      "sky diving",
      "parachuting",
      "gliding",
      "flowboarding",
      "moto-crossing",
      "off-roading"
    ],
    "venue": "venue"
  },
  "ACT-161": {
    "Activity": "play paint ball at *location*?",
    "Template1": "Go *Var1* at *venue*",
    "Var1": [
      "on the AcelorMittal Orbit slide",
      "paintballing",
      "to Spy Academy",
      "climb the O2 Arena",
      "climb the Ice Wall",
      "Zorbing",
      "Scuba Diving",
      "rafting",
      "ride a speedboat down the Thames",
      "on an Urban Aerial Adventure",
      "Rap Jumping",
      "Axe Throwing",
      "Flyboarding",
      "Sword Fighting",
      "Ice Karting",
      "to \"Trapped in a prison van escape\"",
      "clay shooting",
      "bungee jumping",
      "sky diving",
      "parachuting",
      "gliding",
      "flowboarding",
      "moto-crossing",
      "off-roading"
    ],
    "venue": "venue"
  },
  "ACT-162": {
    "Activity": "go flowboarding at *location*?",
    "Template1": "Go *Var1* at *venue*",
    "Var1": [
      "on the AcelorMittal Orbit slide",
      "paintballing",
      "to Spy Academy",
      "climb the O2 Arena",
      "climb the Ice Wall",
      "Zorbing",
      "Scuba Diving",
      "rafting",
      "ride a speedboat down the Thames",
      "on an Urban Aerial Adventure",
      "Rap Jumping",
      "Axe Throwing",
      "Flyboarding",
      "Sword Fighting",
      "Ice Karting",
      "to \"Trapped in a prison van escape\"",
      "clay shooting",
      "bungee jumping",
      "sky diving",
      "parachuting",
      "gliding",
      "flowboarding",
      "moto-crossing",
      "off-roading"
    ],
    "venue": "venue"
  },
  "ACT-164": {
    "Activity": "go moto-crossing at *location*?",
    "Template1": "Go *Var1* at *venue*",
    "Var1": [
      "on the AcelorMittal Orbit slide",
      "paintballing",
      "to Spy Academy",
      "climb the O2 Arena",
      "climb the Ice Wall",
      "Zorbing",
      "Scuba Diving",
      "rafting",
      "ride a speedboat down the Thames",
      "on an Urban Aerial Adventure",
      "Rap Jumping",
      "Axe Throwing",
      "Flyboarding",
      "Sword Fighting",
      "Ice Karting",
      "to \"Trapped in a prison van escape\"",
      "clay shooting",
      "bungee jumping",
      "sky diving",
      "parachuting",
      "gliding",
      "flowboarding",
      "moto-crossing",
      "off-roading"
    ],
    "venue": "venue"
  },
  "ACT-165": {
    "Activity": "go offroading at *location*?",
    "Template1": "Go *Var1* at *venue*",
    "Var1": [
      "on the AcelorMittal Orbit slide",
      "paintballing",
      "to Spy Academy",
      "climb the O2 Arena",
      "climb the Ice Wall",
      "Zorbing",
      "Scuba Diving",
      "rafting",
      "ride a speedboat down the Thames",
      "on an Urban Aerial Adventure",
      "Rap Jumping",
      "Axe Throwing",
      "Flyboarding",
      "Sword Fighting",
      "Ice Karting",
      "to \"Trapped in a prison van escape\"",
      "clay shooting",
      "bungee jumping",
      "sky diving",
      "parachuting",
      "gliding",
      "flowboarding",
      "moto-crossing",
      "off-roading"
    ],
    "venue": "venue"
  }
}